# Command:
#   > ./pkg_setup.sh pkg_zsh-5.0.7.lst
# Use:
#   > export PATH=/opt/freeware/bin:$PATH
#   > export LIBPATH=/opt/freeware/lib:$LIBPATH (if error, remove ':$LIBPATH')
#   > any_util (below)
# Contents:
# Other files:

#
# read file
#
:file

#
# rpm list
#
:rpm
http://www.oss4aix.org/download/RPMS/bash/bash-4.3-16.aix5.1.ppc.rpm
http://www.oss4aix.org/download/RPMS/bzip2/bzip2-1.0.6-1.aix5.1.ppc.rpm
http://www.oss4aix.org/download/RPMS/gdbm/gdbm-1.11-1.aix5.1.ppc.rpm
http://www.oss4aix.org/download/RPMS/gettext/gettext-0.17-1.aix5.1.ppc.rpm
http://www.oss4aix.org/download/RPMS/info/info-5.2-2.aix5.1.ppc.rpm
http://www.oss4aix.org/download/RPMS/libiconv/libiconv-1.14-2.aix5.1.ppc.rpm
http://www.oss4aix.org/download/RPMS/pcre/pcre-8.36-1.aix5.1.ppc.rpm
http://www.oss4aix.org/download/RPMS/readline/readline-6.3-5.aix5.1.ppc.rpm
http://www.oss4aix.org/download/RPMS/zlib/zlib-1.2.8-1.aix5.1.ppc.rpm
http://www.oss4aix.org/download/RPMS/zsh/zsh-5.0.7-1.aix5.1.ppc.rpm

